<?xml version="1.0" encoding="UTF-8"?>
<glyph name="Beta" format="1">
  <advance width="1300"/>
  <unicode hex="0392"/>
  <outline>
    <contour>
      <point x="472" y="1130" type="line" name="sh01"/>
      <point x="472" y="900" type="line"/>
      <point x="501" y="900" type="line" name="ih02"/>
      <point x="548" y="900"/>
      <point x="643" y="926"/>
      <point x="719" y="981"/>
      <point x="767" y="1067"/>
      <point x="767" y="1128" type="qcurve" name="dh03"/>
      <point x="767" y="1183"/>
      <point x="721" y="1253"/>
      <point x="649" y="1291"/>
      <point x="562" y="1305"/>
      <point x="521" y="1305" type="qcurve" name="sv01"/>
      <point x="507" y="1305"/>
      <point x="471" y="1303"/>
      <point x="456" y="1301" type="qcurve"/>
    </contour>
    <contour>
      <point x="121" y="0" type="line" name="dh01"/>
      <point x="121" y="1262" type="line"/>
      <point x="89" y="1489" type="line"/>
      <point x="132" y="1495"/>
      <point x="234" y="1505"/>
      <point x="335" y="1513"/>
      <point x="427" y="1517"/>
      <point x="460" y="1517" type="qcurve" name="at01"/>
      <point x="580" y="1517"/>
      <point x="804" y="1484"/>
      <point x="977" y="1400"/>
      <point x="1081" y="1257"/>
      <point x="1081" y="1148" type="qcurve" name="dh04"/>
      <point x="1081" y="1094"/>
      <point x="1050" y="998"/>
      <point x="995" y="916"/>
      <point x="916" y="850"/>
      <point x="868" y="826" type="qcurve" name="ih01"/>
      <point x="932" y="804"/>
      <point x="1045" y="742"/>
      <point x="1129" y="656"/>
      <point x="1177" y="545"/>
      <point x="1177" y="475" type="qcurve" name="sh03"/>
      <point x="1177" y="387"/>
      <point x="1127" y="248"/>
      <point x="1042" y="143"/>
      <point x="926" y="68"/>
      <point x="795" y="21"/>
      <point x="654" y="0"/>
      <point x="586" y="0" type="qcurve"/>
    </contour>
    <contour>
      <point x="472" y="228" type="line" name="dh02"/>
      <point x="529" y="228" type="line"/>
      <point x="604" y="228"/>
      <point x="721" y="251"/>
      <point x="802" y="307"/>
      <point x="845" y="397"/>
      <point x="845" y="465" type="qcurve" name="sh02"/>
      <point x="845" y="529"/>
      <point x="803" y="617"/>
      <point x="729" y="670"/>
      <point x="627" y="693"/>
      <point x="567" y="693" type="qcurve" name="ih03"/>
      <point x="472" y="693" type="line"/>
    </contour>
  </outline>
  <lib>
    <dict>
      <key>com.adobe.type.autohint</key>
      <data>
        <hintSetList/>
      </data>
      <key>com.fontlab.ttprogram</key>
      <data>
        <ttProgram>
          <ttc code="doubleh" point1="dh01" point2="dh02" stem="eq X: 208"/>
          <ttc code="doubleh" point1="dh03" point2="dh04" stem="eq X: 199"/>
          <ttc code="singleh" point1="dh02" point2="sh01"/>
          <ttc code="interpolateh" point="ih01" point1="ih02" point2="ih03"/>
          <ttc code="singleh" point1="dh04" point2="sh02" stem="eq X: ecart du B"/>
          <ttc code="singleh" point1="sh02" point2="sh03" stem="eq X: 208"/>
          <ttc code="singleh" point1="dh01" point2="lsb" round="true"/>
          <ttc code="singleh" point1="dh04" point2="rsb" round="true"/>
          <ttc code="alignt" point="at01" zone="t: 1"/>
          <ttc code="alignb" point="dh01" zone="b: 0"/>
          <ttc code="doublev" point1="ih02" point2="ih03" stem="eq Y: 153"/>
          <ttc code="singlev" point1="at01" point2="sv01" stem="eq Y: 144"/>
          <ttc code="interpolatev" point="ih01" point1="ih03" point2="ih02"/>
          <ttc code="singlev" point1="dh01" point2="dh02" stem="eq Y: 162"/>
        </ttProgram>
      </data>
    </dict>
  </lib>
</glyph>
