<?xml version="1.0" encoding="UTF-8"?>
<glyph name="whitecircledtwo" format="1">
  <advance width="1700"/>
  <unicode hex="2781"/>
  <outline>
    <contour>
      <point x="180" y="750" type="qcurve"/>
      <point x="180" y="856"/>
      <point x="235" y="1052"/>
      <point x="335" y="1222"/>
      <point x="475" y="1362"/>
      <point x="645" y="1462"/>
      <point x="841" y="1517"/>
      <point x="947" y="1517" type="qcurve"/>
      <point x="1053" y="1517"/>
      <point x="1249" y="1462"/>
      <point x="1419" y="1362"/>
      <point x="1559" y="1222"/>
      <point x="1659" y="1052"/>
      <point x="1714" y="856"/>
      <point x="1714" y="750" type="qcurve"/>
      <point x="1714" y="644"/>
      <point x="1659" y="448"/>
      <point x="1559" y="278"/>
      <point x="1419" y="138"/>
      <point x="1249" y="38"/>
      <point x="1053" y="-17"/>
      <point x="947" y="-17" type="qcurve"/>
      <point x="841" y="-17"/>
      <point x="645" y="38"/>
      <point x="475" y="138"/>
      <point x="335" y="278"/>
      <point x="235" y="448"/>
      <point x="180" y="644"/>
    </contour>
    <contour>
      <point x="298" y="750" type="qcurve"/>
      <point x="298" y="616"/>
      <point x="400" y="379"/>
      <point x="576" y="203"/>
      <point x="813" y="101"/>
      <point x="947" y="101" type="qcurve"/>
      <point x="1037" y="101"/>
      <point x="1202" y="147"/>
      <point x="1346" y="232"/>
      <point x="1464" y="351"/>
      <point x="1549" y="495"/>
      <point x="1595" y="660"/>
      <point x="1595" y="750" type="qcurve"/>
      <point x="1595" y="884"/>
      <point x="1493" y="1120"/>
      <point x="1317" y="1296"/>
      <point x="1081" y="1398"/>
      <point x="947" y="1398" type="qcurve"/>
      <point x="858" y="1398"/>
      <point x="692" y="1352"/>
      <point x="548" y="1267"/>
      <point x="429" y="1149"/>
      <point x="344" y="1005"/>
      <point x="298" y="839"/>
    </contour>
    <contour>
      <point x="616" y="300" type="line"/>
      <point x="636" y="414" type="line"/>
      <point x="672" y="458"/>
      <point x="769" y="562"/>
      <point x="868" y="660"/>
      <point x="955" y="742"/>
      <point x="981" y="765" type="qcurve"/>
      <point x="1032" y="810"/>
      <point x="1087" y="866"/>
      <point x="1115" y="905"/>
      <point x="1127" y="937"/>
      <point x="1133" y="958" type="qcurve"/>
      <point x="1139" y="976"/>
      <point x="1132" y="1017"/>
      <point x="1109" y="1053"/>
      <point x="1072" y="1078"/>
      <point x="1048" y="1080" type="qcurve"/>
      <point x="1000" y="1085"/>
      <point x="909" y="1019"/>
      <point x="874" y="958" type="qcurve"/>
      <point x="744" y="1010" type="line"/>
      <point x="792" y="1114"/>
      <point x="963" y="1216"/>
      <point x="1080" y="1210" type="qcurve"/>
      <point x="1148" y="1207"/>
      <point x="1242" y="1158"/>
      <point x="1299" y="1085"/>
      <point x="1320" y="996"/>
      <point x="1314" y="952" type="qcurve"/>
      <point x="1309" y="909"/>
      <point x="1263" y="831"/>
      <point x="1202" y="760"/>
      <point x="1135" y="699"/>
      <point x="1108" y="673" type="qcurve"/>
      <point x="1072" y="637"/>
      <point x="994" y="563"/>
      <point x="924" y="495"/>
      <point x="866" y="438"/>
      <point x="850" y="420" type="qcurve"/>
      <point x="1236" y="420" type="line"/>
      <point x="1215" y="300" type="line"/>
    </contour>
  </outline>
</glyph>
