<?xml version="1.0" encoding="UTF-8"?>
<glyph name="beta" format="1">
  <advance width="1200"/>
  <unicode hex="03B2"/>
  <outline>
    <contour>
      <point x="428" y="217" type="line"/>
      <point x="449" y="202"/>
      <point x="473" y="190" type="qcurve"/>
      <point x="493" y="179"/>
      <point x="543" y="161"/>
      <point x="568" y="160" type="qcurve"/>
      <point x="665" y="155"/>
      <point x="822" y="177"/>
      <point x="938" y="243"/>
      <point x="1010" y="360"/>
      <point x="1021" y="450" type="qcurve"/>
      <point x="1038" y="591"/>
      <point x="871" y="730"/>
      <point x="708" y="730" type="qcurve"/>
      <point x="666" y="885" type="line"/>
      <point x="730" y="885"/>
      <point x="860" y="910"/>
      <point x="968" y="971"/>
      <point x="1043" y="1072"/>
      <point x="1052" y="1148" type="qcurve"/>
      <point x="1058" y="1196"/>
      <point x="1030" y="1275"/>
      <point x="977" y="1334"/>
      <point x="907" y="1367"/>
      <point x="871" y="1369" type="qcurve"/>
      <point x="793" y="1372"/>
      <point x="701" y="1340"/>
      <point x="669" y="1304" type="qcurve"/>
      <point x="641" y="1273"/>
      <point x="612" y="1205"/>
      <point x="604" y="1160" type="qcurve"/>
    </contour>
    <contour>
      <point x="308" y="-517" type="line"/>
      <point x="111" y="-500" type="line"/>
      <point x="397" y="1111" type="line"/>
      <point x="431" y="1306"/>
      <point x="555" y="1418" type="qcurve"/>
      <point x="583" y="1443"/>
      <point x="642" y="1480"/>
      <point x="721" y="1505"/>
      <point x="826" y="1517"/>
      <point x="900" y="1517" type="qcurve"/>
      <point x="982" y="1517"/>
      <point x="1113" y="1464"/>
      <point x="1202" y="1371"/>
      <point x="1244" y="1244"/>
      <point x="1237" y="1169" type="qcurve"/>
      <point x="1231" y="1106"/>
      <point x="1194" y="1010"/>
      <point x="1133" y="935"/>
      <point x="1051" y="881"/>
      <point x="1001" y="860" type="qcurve"/>
      <point x="839" y="816" type="line"/>
      <point x="984" y="802" type="line"/>
      <point x="1042" y="784"/>
      <point x="1137" y="723"/>
      <point x="1199" y="638"/>
      <point x="1224" y="527"/>
      <point x="1213" y="460" type="qcurve"/>
      <point x="1204" y="366"/>
      <point x="1140" y="225"/>
      <point x="1046" y="123"/>
      <point x="927" y="56"/>
      <point x="797" y="16"/>
      <point x="662" y="0"/>
      <point x="600" y="0" type="qcurve"/>
      <point x="568" y="-1"/>
      <point x="535" y="3" type="qcurve"/>
      <point x="506" y="6"/>
      <point x="438" y="18"/>
      <point x="405" y="32" type="qcurve"/>
    </contour>
  </outline>
</glyph>
